{
  "Packages": [
    {
      "Package": {
        "Id": "UiPath.System.Activities",
        "Version": "20.6.1-preview"
      },
      "Assemblies": [
        "C:\\Users\\ilya.kochetov\\.nuget\\packages\\csvhelper/2.13.5\\lib/net40-client/CsvHelper.dll",
        "C:\\Users\\ilya.kochetov\\.nuget\\packages\\microsoft.aspnet.signalr.client/2.4.0\\lib/net45/Microsoft.AspNet.SignalR.Client.dll",
        "C:\\Users\\ilya.kochetov\\.nuget\\packages\\microsoft.rest.clientruntime/2.3.21\\lib/net461/Microsoft.Rest.ClientRuntime.dll",
        "C:\\Users\\ilya.kochetov\\.nuget\\packages\\newtonsoft.json/11.0.2\\lib/net45/Newtonsoft.Json.dll",
        "C:\\Users\\ilya.kochetov\\.nuget\\packages\\sharpziplib/1.2.0\\lib/net45/ICSharpCode.SharpZipLib.dll",
        "C:\\Users\\ilya.kochetov\\.nuget\\packages\\uipath.system.activities/20.6.1-preview\\lib/net461/ActiproSoftware.Docking.Wpf.dll",
        "C:\\Users\\ilya.kochetov\\.nuget\\packages\\uipath.system.activities/20.6.1-preview\\lib/net461/ActiproSoftware.Ribbon.Wpf.dll",
        "C:\\Users\\ilya.kochetov\\.nuget\\packages\\uipath.system.activities/20.6.1-preview\\lib/net461/ActiproSoftware.Shared.Wpf.dll",
        "C:\\Users\\ilya.kochetov\\.nuget\\packages\\uipath.system.activities/20.6.1-preview\\lib/net461/ActiproSoftware.SyntaxEditor.Addons.DotNet.Wpf.dll",
        "C:\\Users\\ilya.kochetov\\.nuget\\packages\\uipath.system.activities/20.6.1-preview\\lib/net461/ActiproSoftware.SyntaxEditor.Wpf.dll",
        "C:\\Users\\ilya.kochetov\\.nuget\\packages\\uipath.system.activities/20.6.1-preview\\lib/net461/ActiproSoftware.Text.Addons.DotNet.Wpf.dll",
        "C:\\Users\\ilya.kochetov\\.nuget\\packages\\uipath.system.activities/20.6.1-preview\\lib/net461/ActiproSoftware.Text.LLParser.Wpf.dll",
        "C:\\Users\\ilya.kochetov\\.nuget\\packages\\uipath.system.activities/20.6.1-preview\\lib/net461/ActiproSoftware.Text.Wpf.dll",
        "C:\\Users\\ilya.kochetov\\.nuget\\packages\\uipath.system.activities/20.6.1-preview\\lib/net461/ActiproSoftware.Wizard.Wpf.dll",
        "C:\\Users\\ilya.kochetov\\.nuget\\packages\\uipath.system.activities/20.6.1-preview\\lib/net461/UiPath.OrchestratorClient.dll",
        "C:\\Users\\ilya.kochetov\\.nuget\\packages\\uipath.system.activities/20.6.1-preview\\lib/net461/UiPath.System.Activities.Design.dll",
        "C:\\Users\\ilya.kochetov\\.nuget\\packages\\uipath.system.activities/20.6.1-preview\\lib/net461/UiPath.System.Activities.dll"
      ],
      "Path": "C:\\Users\\ilya.kochetov\\.nuget\\packages\\uipath.system.activities\\20.6.1-preview"
    },
    {
      "Package": {
        "Id": "UiPath.UIAutomation.Activities",
        "Version": "20.6.0-preview"
      },
      "Assemblies": [
        "C:\\Users\\ilya.kochetov\\.nuget\\packages\\avalonedit/5.0.3\\lib/Net40/ICSharpCode.AvalonEdit.dll",
        "C:\\Users\\ilya.kochetov\\.nuget\\packages\\extended.wpf.toolkit/2.8.0\\lib/net40/Xceed.Wpf.AvalonDock.Themes.Aero.dll",
        "C:\\Users\\ilya.kochetov\\.nuget\\packages\\extended.wpf.toolkit/2.8.0\\lib/net40/Xceed.Wpf.AvalonDock.Themes.Metro.dll",
        "C:\\Users\\ilya.kochetov\\.nuget\\packages\\extended.wpf.toolkit/2.8.0\\lib/net40/Xceed.Wpf.AvalonDock.Themes.VS2010.dll",
        "C:\\Users\\ilya.kochetov\\.nuget\\packages\\extended.wpf.toolkit/2.8.0\\lib/net40/Xceed.Wpf.AvalonDock.dll",
        "C:\\Users\\ilya.kochetov\\.nuget\\packages\\extended.wpf.toolkit/2.8.0\\lib/net40/Xceed.Wpf.DataGrid.dll",
        "C:\\Users\\ilya.kochetov\\.nuget\\packages\\extended.wpf.toolkit/2.8.0\\lib/net40/Xceed.Wpf.Toolkit.dll",
        "C:\\Users\\ilya.kochetov\\.nuget\\packages\\humanizer.core/2.4.2\\lib/netstandard2.0/Humanizer.dll",
        "C:\\Users\\ilya.kochetov\\.nuget\\packages\\newtonsoft.json/11.0.2\\lib/net45/Newtonsoft.Json.dll",
        "C:\\Users\\ilya.kochetov\\.nuget\\packages\\system.io.abstractions/3.0.10\\lib/net40/System.IO.Abstractions.dll",
        "C:\\Users\\ilya.kochetov\\.nuget\\packages\\system.threading.tasks.dataflow/4.10.0\\lib/netstandard2.0/System.Threading.Tasks.Dataflow.dll",
        "C:\\Users\\ilya.kochetov\\.nuget\\packages\\system.valuetuple/4.5.0\\lib/net461/System.ValueTuple.dll",
        "C:\\Users\\ilya.kochetov\\.nuget\\packages\\uipath/20.6.7473.25550-preview\\lib/UiPath.Interop.dll",
        "C:\\Users\\ilya.kochetov\\.nuget\\packages\\uipath.ocr.contracts/2.6.0\\lib/net461/UiPath.OCR.Contracts.dll",
        "C:\\Users\\ilya.kochetov\\.nuget\\packages\\uipath.platform/20.4.0\\lib/net461/UiPath.Platform.dll",
        "C:\\Users\\ilya.kochetov\\.nuget\\packages\\uipath.telemetry.client/1.2.20\\lib/net461/TelemetryClient.dll",
        "C:\\Users\\ilya.kochetov\\.nuget\\packages\\uipath.uiautomation.activities/20.6.0-preview\\lib/net461/ActiproSoftware.DataGrid.Contrib.Wpf.dll",
        "C:\\Users\\ilya.kochetov\\.nuget\\packages\\uipath.uiautomation.activities/20.6.0-preview\\lib/net461/ActiproSoftware.Docking.Wpf.dll",
        "C:\\Users\\ilya.kochetov\\.nuget\\packages\\uipath.uiautomation.activities/20.6.0-preview\\lib/net461/ActiproSoftware.Editors.Wpf.dll",
        "C:\\Users\\ilya.kochetov\\.nuget\\packages\\uipath.uiautomation.activities/20.6.0-preview\\lib/net461/ActiproSoftware.Ribbon.Wpf.dll",
        "C:\\Users\\ilya.kochetov\\.nuget\\packages\\uipath.uiautomation.activities/20.6.0-preview\\lib/net461/ActiproSoftware.Shared.Wpf.dll",
        "C:\\Users\\ilya.kochetov\\.nuget\\packages\\uipath.uiautomation.activities/20.6.0-preview\\lib/net461/ActiproSoftware.SyntaxEditor.Addons.DotNet.Wpf.dll",
        "C:\\Users\\ilya.kochetov\\.nuget\\packages\\uipath.uiautomation.activities/20.6.0-preview\\lib/net461/ActiproSoftware.SyntaxEditor.Wpf.dll",
        "C:\\Users\\ilya.kochetov\\.nuget\\packages\\uipath.uiautomation.activities/20.6.0-preview\\lib/net461/ActiproSoftware.Text.Addons.DotNet.Wpf.dll",
        "C:\\Users\\ilya.kochetov\\.nuget\\packages\\uipath.uiautomation.activities/20.6.0-preview\\lib/net461/ActiproSoftware.Text.LLParser.Wpf.dll",
        "C:\\Users\\ilya.kochetov\\.nuget\\packages\\uipath.uiautomation.activities/20.6.0-preview\\lib/net461/ActiproSoftware.Text.Wpf.dll",
        "C:\\Users\\ilya.kochetov\\.nuget\\packages\\uipath.uiautomation.activities/20.6.0-preview\\lib/net461/ActiproSoftware.Wizard.Wpf.dll",
        "C:\\Users\\ilya.kochetov\\.nuget\\packages\\uipath.uiautomation.activities/20.6.0-preview\\lib/net461/UiPath.CV.Activities.Design.dll",
        "C:\\Users\\ilya.kochetov\\.nuget\\packages\\uipath.uiautomation.activities/20.6.0-preview\\lib/net461/UiPath.CV.Activities.dll",
        "C:\\Users\\ilya.kochetov\\.nuget\\packages\\uipath.uiautomation.activities/20.6.0-preview\\lib/net461/UiPath.CV.dll",
        "C:\\Users\\ilya.kochetov\\.nuget\\packages\\uipath.uiautomation.activities/20.6.0-preview\\lib/net461/UiPath.UIAutomation.Activities.Design.dll",
        "C:\\Users\\ilya.kochetov\\.nuget\\packages\\uipath.uiautomation.activities/20.6.0-preview\\lib/net461/UiPath.UiAutomation.Activities.dll",
        "C:\\Users\\ilya.kochetov\\.nuget\\packages\\uipath.uiautomation.activities/20.6.0-preview\\lib/net461/UiPath.Wizards.dll",
        "C:\\Users\\ilya.kochetov\\.nuget\\packages\\uipath.vision/2.1.0-preview\\lib/net461/UiPath.Vision.AzureComputerVision.dll",
        "C:\\Users\\ilya.kochetov\\.nuget\\packages\\uipath.vision/2.1.0-preview\\lib/net461/UiPath.Vision.Core.dll",
        "C:\\Users\\ilya.kochetov\\.nuget\\packages\\uipath.vision/2.1.0-preview\\lib/net461/UiPath.Vision.GoogleCloud.dll",
        "C:\\Users\\ilya.kochetov\\.nuget\\packages\\uipath.vision/2.1.0-preview\\lib/net461/UiPath.Vision.Microsoft.dll",
        "C:\\Users\\ilya.kochetov\\.nuget\\packages\\uipath.vision/2.1.0-preview\\lib/net461/UiPath.Vision.MicrosoftCloud.dll",
        "C:\\Users\\ilya.kochetov\\.nuget\\packages\\uipath.vision/2.1.0-preview\\lib/net461/UiPath.Vision.Tesseract.dll",
        "C:\\Users\\ilya.kochetov\\.nuget\\packages\\uipath.vision/2.1.0-preview\\lib/net461/UiPath.Vision.dll"
      ],
      "Path": "C:\\Users\\ilya.kochetov\\.nuget\\packages\\uipath.uiautomation.activities\\20.6.0-preview"
    },
    {
      "Package": {
        "Id": "UiPathTeam.Interactive.Activities",
        "Version": "1.3.22"
      },
      "Assemblies": [
        "C:\\Users\\ilya.kochetov\\.nuget\\packages\\uipathteam.interactive.activities/1.3.22\\lib/net461/UiPathTeam.Interactive.Activities.dll"
      ],
      "Path": "C:\\Users\\ilya.kochetov\\.nuget\\packages\\uipathteam.interactive.activities\\1.3.22"
    }
  ],
  "Conflicts": [],
  "ResolvedDependencies": {
    "AvalonEdit": {
      "Id": "AvalonEdit",
      "Version": "5.0.3",
      "Dependencies": []
    },
    "CsvHelper": {
      "Id": "CsvHelper",
      "Version": "2.13.5",
      "Dependencies": []
    },
    "Extended.Wpf.Toolkit": {
      "Id": "Extended.Wpf.Toolkit",
      "Version": "2.8.0",
      "Dependencies": []
    },
    "Humanizer.Core": {
      "Id": "Humanizer.Core",
      "Version": "2.4.2",
      "Dependencies": []
    },
    "Microsoft.AspNet.SignalR.Client": {
      "Id": "Microsoft.AspNet.SignalR.Client",
      "Version": "2.4.0",
      "Dependencies": [
        {
          "Item1": "Newtonsoft.Json",
          "Item2": "[6.0.4, )"
        }
      ]
    },
    "Microsoft.Rest.ClientRuntime": {
      "Id": "Microsoft.Rest.ClientRuntime",
      "Version": "2.3.21",
      "Dependencies": [
        {
          "Item1": "Newtonsoft.Json",
          "Item2": "[10.0.3, )"
        }
      ]
    },
    "Microsoft.Windows.SDK.Contracts": {
      "Id": "Microsoft.Windows.SDK.Contracts",
      "Version": "10.0.18362.2005",
      "Dependencies": [
        {
          "Item1": "System.Runtime.WindowsRuntime",
          "Item2": "[4.6.0, )"
        },
        {
          "Item1": "System.Runtime.WindowsRuntime.UI.Xaml",
          "Item2": "[4.6.0, )"
        }
      ]
    },
    "Newtonsoft.Json": {
      "Id": "Newtonsoft.Json",
      "Version": "11.0.2",
      "Dependencies": []
    },
    "SharpZipLib": {
      "Id": "SharpZipLib",
      "Version": "1.2.0",
      "Dependencies": []
    },
    "System.IO.Abstractions": {
      "Id": "System.IO.Abstractions",
      "Version": "3.0.10",
      "Dependencies": []
    },
    "System.Runtime.WindowsRuntime": {
      "Id": "System.Runtime.WindowsRuntime",
      "Version": "4.6.0",
      "Dependencies": []
    },
    "System.Runtime.WindowsRuntime.UI.Xaml": {
      "Id": "System.Runtime.WindowsRuntime.UI.Xaml",
      "Version": "4.6.0",
      "Dependencies": [
        {
          "Item1": "System.Runtime.WindowsRuntime",
          "Item2": "[4.6.0, )"
        }
      ]
    },
    "System.Threading.Tasks.Dataflow": {
      "Id": "System.Threading.Tasks.Dataflow",
      "Version": "4.10.0",
      "Dependencies": []
    },
    "System.ValueTuple": {
      "Id": "System.ValueTuple",
      "Version": "4.5.0",
      "Dependencies": []
    },
    "UiPath": {
      "Id": "UiPath",
      "Version": "20.6.7473.25550-preview",
      "Dependencies": []
    },
    "UiPath.OCR.Contracts": {
      "Id": "UiPath.OCR.Contracts",
      "Version": "2.6.0",
      "Dependencies": []
    },
    "UiPath.Platform": {
      "Id": "UiPath.Platform",
      "Version": "20.4.0",
      "Dependencies": [
        {
          "Item1": "Newtonsoft.Json",
          "Item2": "[11.0.2, )"
        },
        {
          "Item1": "System.IO.Abstractions",
          "Item2": "[3.0.10, )"
        },
        {
          "Item1": "System.ValueTuple",
          "Item2": "[4.5.0, )"
        }
      ]
    },
    "UiPath.System.Activities": {
      "Id": "UiPath.System.Activities",
      "Version": "20.6.1-preview",
      "Dependencies": [
        {
          "Item1": "CsvHelper",
          "Item2": "[2.13.5, )"
        },
        {
          "Item1": "Microsoft.AspNet.SignalR.Client",
          "Item2": "[2.4.0, )"
        },
        {
          "Item1": "Microsoft.Rest.ClientRuntime",
          "Item2": "[2.3.21, )"
        },
        {
          "Item1": "Newtonsoft.Json",
          "Item2": "[11.0.2, )"
        },
        {
          "Item1": "SharpZipLib",
          "Item2": "[1.2.0, )"
        }
      ]
    },
    "UiPath.Telemetry.Client": {
      "Id": "UiPath.Telemetry.Client",
      "Version": "1.2.20",
      "Dependencies": [
        {
          "Item1": "Newtonsoft.Json",
          "Item2": "[11.0.1, )"
        },
        {
          "Item1": "System.Threading.Tasks.Dataflow",
          "Item2": "[4.10.0, )"
        }
      ]
    },
    "UiPath.UIAutomation.Activities": {
      "Id": "UiPath.UIAutomation.Activities",
      "Version": "20.6.0-preview",
      "Dependencies": [
        {
          "Item1": "UiPath",
          "Item2": "[20.6.7473.25550-preview, 20.6.7473.25550-preview]"
        },
        {
          "Item1": "UiPath.Vision",
          "Item2": "[2.1.0-preview, )"
        },
        {
          "Item1": "UiPath.OCR.Contracts",
          "Item2": "[2.6.0, )"
        },
        {
          "Item1": "UiPath.Platform",
          "Item2": "[20.4.0, )"
        },
        {
          "Item1": "AvalonEdit",
          "Item2": "[5.0.3, )"
        },
        {
          "Item1": "Extended.Wpf.Toolkit",
          "Item2": "[2.8.0, )"
        },
        {
          "Item1": "Humanizer.Core",
          "Item2": "[2.4.2, )"
        },
        {
          "Item1": "Newtonsoft.Json",
          "Item2": "[11.0.2, )"
        },
        {
          "Item1": "System.IO.Abstractions",
          "Item2": "[3.0.10, )"
        },
        {
          "Item1": "System.ValueTuple",
          "Item2": "[4.5.0, )"
        },
        {
          "Item1": "UiPath.Telemetry.Client",
          "Item2": "[1.2.20, )"
        }
      ]
    },
    "UiPath.Vision": {
      "Id": "UiPath.Vision",
      "Version": "2.1.0-preview",
      "Dependencies": [
        {
          "Item1": "UiPath.OCR.Contracts",
          "Item2": "[2.6.0, )"
        }
      ]
    },
    "UiPathTeam.Interactive.Activities": {
      "Id": "UiPathTeam.Interactive.Activities",
      "Version": "1.3.22",
      "Dependencies": [
        {
          "Item1": "Microsoft.Windows.SDK.Contracts",
          "Item2": "[10.0.18362.2005, )"
        }
      ]
    }
  },
  "AllPackages": [
    {
      "Package": {
        "Id": "AvalonEdit",
        "Version": "5.0.3"
      },
      "Assemblies": [
        "C:\\Users\\ilya.kochetov\\.nuget\\packages\\avalonedit\\5.0.3\\lib\\Net40\\ICSharpCode.AvalonEdit.dll"
      ],
      "Path": "C:\\Users\\ilya.kochetov\\.nuget\\packages\\avalonedit\\5.0.3"
    },
    {
      "Package": {
        "Id": "CsvHelper",
        "Version": "2.13.5"
      },
      "Assemblies": [
        "C:\\Users\\ilya.kochetov\\.nuget\\packages\\csvhelper\\2.13.5\\lib\\net40-client\\CsvHelper.dll"
      ],
      "Path": "C:\\Users\\ilya.kochetov\\.nuget\\packages\\csvhelper\\2.13.5"
    },
    {
      "Package": {
        "Id": "Extended.Wpf.Toolkit",
        "Version": "2.8.0"
      },
      "Assemblies": [
        "C:\\Users\\ilya.kochetov\\.nuget\\packages\\extended.wpf.toolkit\\2.8.0\\lib\\net40\\Xceed.Wpf.AvalonDock.Themes.Aero.dll",
        "C:\\Users\\ilya.kochetov\\.nuget\\packages\\extended.wpf.toolkit\\2.8.0\\lib\\net40\\Xceed.Wpf.AvalonDock.Themes.Metro.dll",
        "C:\\Users\\ilya.kochetov\\.nuget\\packages\\extended.wpf.toolkit\\2.8.0\\lib\\net40\\Xceed.Wpf.AvalonDock.Themes.VS2010.dll",
        "C:\\Users\\ilya.kochetov\\.nuget\\packages\\extended.wpf.toolkit\\2.8.0\\lib\\net40\\Xceed.Wpf.AvalonDock.dll",
        "C:\\Users\\ilya.kochetov\\.nuget\\packages\\extended.wpf.toolkit\\2.8.0\\lib\\net40\\Xceed.Wpf.DataGrid.dll",
        "C:\\Users\\ilya.kochetov\\.nuget\\packages\\extended.wpf.toolkit\\2.8.0\\lib\\net40\\Xceed.Wpf.Toolkit.dll"
      ],
      "Path": "C:\\Users\\ilya.kochetov\\.nuget\\packages\\extended.wpf.toolkit\\2.8.0"
    },
    {
      "Package": {
        "Id": "Humanizer.Core",
        "Version": "2.4.2"
      },
      "Assemblies": [
        "C:\\Users\\ilya.kochetov\\.nuget\\packages\\humanizer.core\\2.4.2\\lib\\netstandard2.0\\Humanizer.dll"
      ],
      "Path": "C:\\Users\\ilya.kochetov\\.nuget\\packages\\humanizer.core\\2.4.2"
    },
    {
      "Package": {
        "Id": "Microsoft.AspNet.SignalR.Client",
        "Version": "2.4.0"
      },
      "Assemblies": [
        "C:\\Users\\ilya.kochetov\\.nuget\\packages\\microsoft.aspnet.signalr.client\\2.4.0\\lib\\net45\\Microsoft.AspNet.SignalR.Client.dll"
      ],
      "Path": "C:\\Users\\ilya.kochetov\\.nuget\\packages\\microsoft.aspnet.signalr.client\\2.4.0"
    },
    {
      "Package": {
        "Id": "Microsoft.Rest.ClientRuntime",
        "Version": "2.3.21"
      },
      "Assemblies": [
        "C:\\Users\\ilya.kochetov\\.nuget\\packages\\microsoft.rest.clientruntime\\2.3.21\\lib\\net461\\Microsoft.Rest.ClientRuntime.dll"
      ],
      "Path": "C:\\Users\\ilya.kochetov\\.nuget\\packages\\microsoft.rest.clientruntime\\2.3.21"
    },
    {
      "Package": {
        "Id": "Microsoft.Windows.SDK.Contracts",
        "Version": "10.0.18362.2005"
      },
      "Assemblies": [],
      "Path": "C:\\Users\\ilya.kochetov\\.nuget\\packages\\microsoft.windows.sdk.contracts\\10.0.18362.2005"
    },
    {
      "Package": {
        "Id": "Newtonsoft.Json",
        "Version": "11.0.2"
      },
      "Assemblies": [
        "C:\\Users\\ilya.kochetov\\.nuget\\packages\\newtonsoft.json\\11.0.2\\lib\\net45\\Newtonsoft.Json.dll"
      ],
      "Path": "C:\\Users\\ilya.kochetov\\.nuget\\packages\\newtonsoft.json\\11.0.2"
    },
    {
      "Package": {
        "Id": "SharpZipLib",
        "Version": "1.2.0"
      },
      "Assemblies": [
        "C:\\Users\\ilya.kochetov\\.nuget\\packages\\sharpziplib\\1.2.0\\lib\\net45\\ICSharpCode.SharpZipLib.dll"
      ],
      "Path": "C:\\Users\\ilya.kochetov\\.nuget\\packages\\sharpziplib\\1.2.0"
    },
    {
      "Package": {
        "Id": "System.IO.Abstractions",
        "Version": "3.0.10"
      },
      "Assemblies": [
        "C:\\Users\\ilya.kochetov\\.nuget\\packages\\system.io.abstractions\\3.0.10\\lib\\net40\\System.IO.Abstractions.dll"
      ],
      "Path": "C:\\Users\\ilya.kochetov\\.nuget\\packages\\system.io.abstractions\\3.0.10"
    },
    {
      "Package": {
        "Id": "System.Runtime.WindowsRuntime",
        "Version": "4.6.0"
      },
      "Assemblies": [
        "C:\\Users\\ilya.kochetov\\.nuget\\packages\\system.runtime.windowsruntime\\4.6.0\\lib\\net45\\_._"
      ],
      "Path": "C:\\Users\\ilya.kochetov\\.nuget\\packages\\system.runtime.windowsruntime\\4.6.0"
    },
    {
      "Package": {
        "Id": "System.Runtime.WindowsRuntime.UI.Xaml",
        "Version": "4.6.0"
      },
      "Assemblies": [
        "C:\\Users\\ilya.kochetov\\.nuget\\packages\\system.runtime.windowsruntime.ui.xaml\\4.6.0\\lib\\net45\\_._"
      ],
      "Path": "C:\\Users\\ilya.kochetov\\.nuget\\packages\\system.runtime.windowsruntime.ui.xaml\\4.6.0"
    },
    {
      "Package": {
        "Id": "System.Threading.Tasks.Dataflow",
        "Version": "4.10.0"
      },
      "Assemblies": [
        "C:\\Users\\ilya.kochetov\\.nuget\\packages\\system.threading.tasks.dataflow\\4.10.0\\lib\\netstandard2.0\\System.Threading.Tasks.Dataflow.dll"
      ],
      "Path": "C:\\Users\\ilya.kochetov\\.nuget\\packages\\system.threading.tasks.dataflow\\4.10.0"
    },
    {
      "Package": {
        "Id": "System.ValueTuple",
        "Version": "4.5.0"
      },
      "Assemblies": [
        "C:\\Users\\ilya.kochetov\\.nuget\\packages\\system.valuetuple\\4.5.0\\lib\\net461\\System.ValueTuple.dll"
      ],
      "Path": "C:\\Users\\ilya.kochetov\\.nuget\\packages\\system.valuetuple\\4.5.0"
    },
    {
      "Package": {
        "Id": "UiPath",
        "Version": "20.6.7473.25550-preview"
      },
      "Assemblies": [
        "C:\\Users\\ilya.kochetov\\.nuget\\packages\\uipath\\20.6.7473.25550-preview\\lib\\UiPath.Interop.dll"
      ],
      "Path": "C:\\Users\\ilya.kochetov\\.nuget\\packages\\uipath\\20.6.7473.25550-preview"
    },
    {
      "Package": {
        "Id": "UiPath.OCR.Contracts",
        "Version": "2.6.0"
      },
      "Assemblies": [
        "C:\\Users\\ilya.kochetov\\.nuget\\packages\\uipath.ocr.contracts\\2.6.0\\lib\\net461\\UiPath.OCR.Contracts.dll"
      ],
      "Path": "C:\\Users\\ilya.kochetov\\.nuget\\packages\\uipath.ocr.contracts\\2.6.0"
    },
    {
      "Package": {
        "Id": "UiPath.Platform",
        "Version": "20.4.0"
      },
      "Assemblies": [
        "C:\\Users\\ilya.kochetov\\.nuget\\packages\\uipath.platform\\20.4.0\\lib\\net461\\UiPath.Platform.dll"
      ],
      "Path": "C:\\Users\\ilya.kochetov\\.nuget\\packages\\uipath.platform\\20.4.0"
    },
    {
      "Package": {
        "Id": "UiPath.System.Activities",
        "Version": "20.6.1-preview"
      },
      "Assemblies": [
        "C:\\Users\\ilya.kochetov\\.nuget\\packages\\uipath.system.activities\\20.6.1-preview\\lib\\net461\\ActiproSoftware.Docking.Wpf.dll",
        "C:\\Users\\ilya.kochetov\\.nuget\\packages\\uipath.system.activities\\20.6.1-preview\\lib\\net461\\ActiproSoftware.Ribbon.Wpf.dll",
        "C:\\Users\\ilya.kochetov\\.nuget\\packages\\uipath.system.activities\\20.6.1-preview\\lib\\net461\\ActiproSoftware.Shared.Wpf.dll",
        "C:\\Users\\ilya.kochetov\\.nuget\\packages\\uipath.system.activities\\20.6.1-preview\\lib\\net461\\ActiproSoftware.SyntaxEditor.Addons.DotNet.Wpf.dll",
        "C:\\Users\\ilya.kochetov\\.nuget\\packages\\uipath.system.activities\\20.6.1-preview\\lib\\net461\\ActiproSoftware.SyntaxEditor.Wpf.dll",
        "C:\\Users\\ilya.kochetov\\.nuget\\packages\\uipath.system.activities\\20.6.1-preview\\lib\\net461\\ActiproSoftware.Text.Addons.DotNet.Wpf.dll",
        "C:\\Users\\ilya.kochetov\\.nuget\\packages\\uipath.system.activities\\20.6.1-preview\\lib\\net461\\ActiproSoftware.Text.LLParser.Wpf.dll",
        "C:\\Users\\ilya.kochetov\\.nuget\\packages\\uipath.system.activities\\20.6.1-preview\\lib\\net461\\ActiproSoftware.Text.Wpf.dll",
        "C:\\Users\\ilya.kochetov\\.nuget\\packages\\uipath.system.activities\\20.6.1-preview\\lib\\net461\\ActiproSoftware.Wizard.Wpf.dll",
        "C:\\Users\\ilya.kochetov\\.nuget\\packages\\uipath.system.activities\\20.6.1-preview\\lib\\net461\\CustomInputForm.exe",
        "C:\\Users\\ilya.kochetov\\.nuget\\packages\\uipath.system.activities\\20.6.1-preview\\lib\\net461\\UiPath.OrchestratorClient.dll",
        "C:\\Users\\ilya.kochetov\\.nuget\\packages\\uipath.system.activities\\20.6.1-preview\\lib\\net461\\UiPath.System.Activities.Design.dll",
        "C:\\Users\\ilya.kochetov\\.nuget\\packages\\uipath.system.activities\\20.6.1-preview\\lib\\net461\\UiPath.System.Activities.dll"
      ],
      "Path": "C:\\Users\\ilya.kochetov\\.nuget\\packages\\uipath.system.activities\\20.6.1-preview"
    },
    {
      "Package": {
        "Id": "UiPath.Telemetry.Client",
        "Version": "1.2.20"
      },
      "Assemblies": [
        "C:\\Users\\ilya.kochetov\\.nuget\\packages\\uipath.telemetry.client\\1.2.20\\lib\\net461\\TelemetryClient.dll"
      ],
      "Path": "C:\\Users\\ilya.kochetov\\.nuget\\packages\\uipath.telemetry.client\\1.2.20"
    },
    {
      "Package": {
        "Id": "UiPath.UIAutomation.Activities",
        "Version": "20.6.0-preview"
      },
      "Assemblies": [
        "C:\\Users\\ilya.kochetov\\.nuget\\packages\\uipath.uiautomation.activities\\20.6.0-preview\\lib\\net461\\ActiproSoftware.DataGrid.Contrib.Wpf.dll",
        "C:\\Users\\ilya.kochetov\\.nuget\\packages\\uipath.uiautomation.activities\\20.6.0-preview\\lib\\net461\\ActiproSoftware.Docking.Wpf.dll",
        "C:\\Users\\ilya.kochetov\\.nuget\\packages\\uipath.uiautomation.activities\\20.6.0-preview\\lib\\net461\\ActiproSoftware.Editors.Wpf.dll",
        "C:\\Users\\ilya.kochetov\\.nuget\\packages\\uipath.uiautomation.activities\\20.6.0-preview\\lib\\net461\\ActiproSoftware.Ribbon.Wpf.dll",
        "C:\\Users\\ilya.kochetov\\.nuget\\packages\\uipath.uiautomation.activities\\20.6.0-preview\\lib\\net461\\ActiproSoftware.Shared.Wpf.dll",
        "C:\\Users\\ilya.kochetov\\.nuget\\packages\\uipath.uiautomation.activities\\20.6.0-preview\\lib\\net461\\ActiproSoftware.SyntaxEditor.Addons.DotNet.Wpf.dll",
        "C:\\Users\\ilya.kochetov\\.nuget\\packages\\uipath.uiautomation.activities\\20.6.0-preview\\lib\\net461\\ActiproSoftware.SyntaxEditor.Wpf.dll",
        "C:\\Users\\ilya.kochetov\\.nuget\\packages\\uipath.uiautomation.activities\\20.6.0-preview\\lib\\net461\\ActiproSoftware.Text.Addons.DotNet.Wpf.dll",
        "C:\\Users\\ilya.kochetov\\.nuget\\packages\\uipath.uiautomation.activities\\20.6.0-preview\\lib\\net461\\ActiproSoftware.Text.LLParser.Wpf.dll",
        "C:\\Users\\ilya.kochetov\\.nuget\\packages\\uipath.uiautomation.activities\\20.6.0-preview\\lib\\net461\\ActiproSoftware.Text.Wpf.dll",
        "C:\\Users\\ilya.kochetov\\.nuget\\packages\\uipath.uiautomation.activities\\20.6.0-preview\\lib\\net461\\ActiproSoftware.Wizard.Wpf.dll",
        "C:\\Users\\ilya.kochetov\\.nuget\\packages\\uipath.uiautomation.activities\\20.6.0-preview\\lib\\net461\\UiPath.CV.Activities.Design.dll",
        "C:\\Users\\ilya.kochetov\\.nuget\\packages\\uipath.uiautomation.activities\\20.6.0-preview\\lib\\net461\\UiPath.CV.Activities.dll",
        "C:\\Users\\ilya.kochetov\\.nuget\\packages\\uipath.uiautomation.activities\\20.6.0-preview\\lib\\net461\\UiPath.CV.dll",
        "C:\\Users\\ilya.kochetov\\.nuget\\packages\\uipath.uiautomation.activities\\20.6.0-preview\\lib\\net461\\UiPath.UIAutomation.Activities.Design.dll",
        "C:\\Users\\ilya.kochetov\\.nuget\\packages\\uipath.uiautomation.activities\\20.6.0-preview\\lib\\net461\\UiPath.UiAutomation.Activities.dll",
        "C:\\Users\\ilya.kochetov\\.nuget\\packages\\uipath.uiautomation.activities\\20.6.0-preview\\lib\\net461\\UiPath.Wizards.dll"
      ],
      "Path": "C:\\Users\\ilya.kochetov\\.nuget\\packages\\uipath.uiautomation.activities\\20.6.0-preview"
    },
    {
      "Package": {
        "Id": "UiPath.Vision",
        "Version": "2.1.0-preview"
      },
      "Assemblies": [
        "C:\\Users\\ilya.kochetov\\.nuget\\packages\\uipath.vision\\2.1.0-preview\\lib\\net461\\UiPath.Vision.Core.dll",
        "C:\\Users\\ilya.kochetov\\.nuget\\packages\\uipath.vision\\2.1.0-preview\\lib\\net461\\UiPath.Vision.dll"
      ],
      "Path": "C:\\Users\\ilya.kochetov\\.nuget\\packages\\uipath.vision\\2.1.0-preview"
    },
    {
      "Package": {
        "Id": "UiPathTeam.Interactive.Activities",
        "Version": "1.3.22"
      },
      "Assemblies": [
        "C:\\Users\\ilya.kochetov\\.nuget\\packages\\uipathteam.interactive.activities\\1.3.22\\lib\\net461\\UiPathTeam.Interactive.Activities.dll"
      ],
      "Path": "C:\\Users\\ilya.kochetov\\.nuget\\packages\\uipathteam.interactive.activities\\1.3.22"
    }
  ]
}